…
## Merge DE table of analysis with and without batch effect correction

And compare the “uncorrected logFC” between the groups of interest with
the “corrected logFC”

``` r
muscat_output_joined = muscat_output_uncorrected$celltype_de$celltype_de$de_output_tidy %>% distinct(gene, cluster_id, logFC, p_adj, contrast) %>% rename(logFC_uncorrected = logFC, p_adj_uncorrected = p_adj) %>% inner_join(
  muscat_output$celltype_de$celltype_de$de_output_tidy %>% distinct(gene, cluster_id, logFC, p_adj, contrast) %>% rename(logFC_corrected = logFC, p_adj_corrected = p_adj)
) %>% mutate(diff_logFC = logFC_corrected - logFC_uncorrected)

muscat_output_joined %>% arrange(-abs(diff_logFC)) %>% filter(cluster_id == celltype_oi)
## # A tibble: 27,894 x 8
##    gene    cluster_id logFC_uncorrected p_adj_uncorrected contrast logFC_corrected p_adj_corrected diff_logFC
##    <chr>   <chr>                  <dbl>             <dbl> <chr>              <dbl>           <dbl>      <dbl>
##  1 MCIN    Malignant             -0.944             0.914 High-Low           -3.66           0.437      -2.72
##  2 MCIN    Malignant              0.944             0.914 Low-High            3.66           0.437       2.72
##  3 CST1    Malignant             -2.08              0.794 High-Low           -4.63           0.516      -2.55
##  4 CST1    Malignant              2.08              0.794 Low-High            4.63           0.516       2.55
##  5 GAGE12D Malignant             -0.172             0.994 High-Low           -2.58           0.789      -2.41
##  6 GAGE12D Malignant              0.172             0.994 Low-High            2.58           0.789       2.41
##  7 DPT     Malignant              1.14              0.906 High-Low           -1.05           0.879      -2.19
##  8 DPT     Malignant             -1.14              0.906 Low-High            1.05           0.879       2.19
##  9 HSPA7   Malignant              3.72              0.479 High-Low            1.55           0.742      -2.17
## 10 HSPA7   Malignant             -3.72              0.479 Low-High           -1.55           0.742       2.17
## # ... with 27,884 more rows
```
…
